{
    "key": "jsd-customer-portal-sub-header-example",
    "name": "JIRA Service Desk Customer Portal Sub Header Example Add-on",
    "description": "An ACE and Node.js add showcasing the creation of a JIRA Service Desk Customer Portal sub header panel",
    "vendor": {
        "name": "Atlassian",
        "url": "https://www.atlassian.com"
    },
    "baseUrl": "{{localBaseUrl}}",
    "links": {
        "self": "{{localBaseUrl}}/atlassian-connect.json",
        "homepage": "{{localBaseUrl}}/atlassian-connect.json"
    },
    "authentication": {
        "type": "jwt"
    },
    "lifecycle": {
        // atlassian-connect-express expects this route to be configured to manage the installation handshake
        "installed": "/installed"
    },
    "scopes": [
        "READ"
    ],
    "modules": {
        "serviceDeskPortalSubHeaders": [
            {
                "key": "sd-portal-subheader",
                "url": "/sd-portal-subheader",
                "pages": [
                    "help_center", "portal", "create_request", "view_request", "my_requests", "approvals", "profile"
                ]
            }
        ]
        }
}
